<?xml version="1.0" encoding="UTF-8" standalone="no"?>
<!-- Created with Inkscape (http://www.inkscape.org/) -->

<svg
   width="210mm"
   height="297mm"
   viewBox="0 0 210 297"
   version="1.1"
   id="svg5"
   inkscape:version="1.2.2 (b0a8486541, 2022-12-01)"
   sodipodi:docname="made_external.svg"
   xmlns:inkscape="http://www.inkscape.org/namespaces/inkscape"
   xmlns:sodipodi="http://sodipodi.sourceforge.net/DTD/sodipodi-0.dtd"
   xmlns="http://www.w3.org/2000/svg"
   xmlns:svg="http://www.w3.org/2000/svg">
  <sodipodi:namedview
     id="namedview7"
     pagecolor="#ffffff"
     bordercolor="#666666"
     borderopacity="1.0"
     inkscape:showpageshadow="2"
     inkscape:pageopacity="0.0"
     inkscape:pagecheckerboard="0"
     inkscape:deskcolor="#d1d1d1"
     inkscape:document-units="mm"
     showgrid="false"
     inkscape:zoom="0.2102413"
     inkscape:cx="625.47177"
     inkscape:cy="677.79261"
     inkscape:window-width="1920"
     inkscape:window-height="1011"
     inkscape:window-x="0"
     inkscape:window-y="32"
     inkscape:window-maximized="1"
     inkscape:current-layer="layer1" />
  <defs
     id="defs2" />
  <g
     inkscape:label="Capa 1"
     inkscape:groupmode="layer"
     id="layer1">
    <rect
       style="fill:#dc8add;stroke-width:0.978958;stroke-linecap:round;stroke-linejoin:round"
       id="rect234"
       width="109.04293"
       height="34.046791"
       x="56.400616"
       y="45.184643" />
    <path
       style="fill:none;stroke:#000000;stroke-width:0.264583px;stroke-linecap:butt;stroke-linejoin:miter;stroke-opacity:1"
       d="m 56.400615,120.00166 c -1.854478,2.14583 -4.778336,3.71217 -5.563436,6.43747 -0.517666,1.79697 1.526976,3.41515 2.225376,5.14989 1.994072,4.95303 4.10469,14.83917 8.265652,18.16784 2.212673,1.77008 9.569042,4.84947 12.716398,3.43323 0.91916,-0.4136 1.643444,-1.17626 2.384298,-1.85968 1.382406,-1.27522 2.674099,-2.64608 3.973825,-4.00547 0.357944,-0.37437 2.638343,-3.07255 3.338063,-3.57633 1.061175,-0.76402 4.509595,-1.8556 5.245512,-2.00277 0.727388,-0.14547 1.50789,-0.18834 2.225374,0 2.658747,0.6979 3.313625,4.01328 4.927592,5.72212 1.131927,1.19847 2.404903,2.29309 3.814905,3.14719 6.385396,3.86791 11.531036,1.10903 16.690306,8.01102 2.04296,2.73305 2.86261,6.64272 3.33798,9.8707 0.37803,2.56702 0.76265,9.18615 0.31792,11.87347 -1.74008,10.51466 -7.9641,19.86504 -14.30593,28.18157 -0.5803,0.761 -1.30595,1.40144 -1.90745,2.1458 -0.79101,0.19301 -0.47005,0.99221 -0.79477,1.43053 -0.22796,0.30772 -0.75235,0.15641 -1.11268,0.28612 -0.48324,0.17395 -1.00258,0.28833 -1.43061,0.57217 -2.935129,1.94632 -3.403068,4.17786 -7.152968,5.86522 -1.650307,0.7426 -5.874385,0.67214 -7.311887,0.71527 -3.44378,0.10331 -6.887716,0.20234 -10.332027,0.28612 -2.225225,0.0541 -4.452154,0.0506 -6.67612,0.14302 -2.72388,0.11314 -7.480916,0.91665 -10.014183,-0.57224 -1.763503,-1.03647 -3.338496,-2.3999 -4.768593,-3.86245 -0.4338,-0.44364 -4.304567,-7.15266 -5.245513,-7.15266 -0.464836,0 -0.976669,0.21303 -1.271685,0.57224 -2.606519,3.17376 -2.81287,8.91885 -1.589532,12.58874 1.017799,3.0533 2.605598,5.89317 4.132826,8.72622 1.074063,1.99241 2.344216,3.87759 3.655983,5.7222 5.335784,7.5032 10.805163,11.99742 19.710366,14.87756 1.615286,0.52242 3.250504,1.02391 4.927592,1.28743 4.344582,0.68268 12.595291,0.46404 16.849224,0 2.807439,-0.30625 5.490927,-1.33395 8.265657,-1.85968 2.84995,-0.53997 5.7326,-0.89599 8.58357,-1.43053 1.83424,-0.3439 5.72719,-0.70366 7.15297,-2.57494 3.20165,-4.20206 5.25079,-10.10778 7.31188,-14.87756 2.89731,-6.70493 6.41203,-13.14722 9.21934,-19.8845 2.62803,-6.30701 4.14123,-13.06571 7.31197,-19.16915 1.50003,-2.88746 2.91181,-4.08928 5.40443,-5.86523 1.26779,-0.90327 3.19749,-0.24928 3.97391,-1.71665 1.88673,-3.56578 3.08442,-9.64412 4.29175,-13.44703 1.40227,-4.41694 5.83879,-14.57951 4.60967,-19.74139 -0.46443,-1.95045 -1.22232,-1.13086 -2.22538,-2.86107 -0.39412,-0.67983 -0.75898,-3.74408 -0.79476,-4.29159 -0.10264,-1.57026 0,-3.14721 0,-4.72082 0,-0.28612 0,0.57225 0,0.85837"
       id="path351" />
  </g>
</svg>
